Karl’s Website - Kegg Disease Pathways example
…
Code

# report top marginal enrichment in each dataset
ser_res %>% 
  left_join(target_pathways) %>%
  group_by(dataset) %>%
  filter(lbf == max(lbf)) %>%
  rename(target_description = description) %>%
  left_join(kegg$geneSetDes, join_by(pathway == geneSet)) %>%
  select(dataset, pathway, description, target_pathway, target_description, lbf)

Joining with `by = join_by(dataset)`

# A tibble: 24 × 6
# Groups:   dataset [24]
   dataset  pathway  description         target_pathway target_description   lbf
   <chr>    <chr>    <chr>               <chr>          <chr>              <dbl>
 1 GSE1297  hsa00190 Oxidative phosphor… hsa05010       Alzheimer disease  26.1 
 2 GSE14762 hsa04080 Neuroactive ligand… hsa05211       Renal cell carcin… 23.9 
 3 GSE15471 hsa04740 Olfactory transduc… hsa05212       Pancreatic cancer  16.9 
 4 GSE16515 hsa03050 Proteasome          hsa05212       Pancreatic cancer   8.92
 5 GSE18842 hsa04740 Olfactory transduc… hsa05223       Non-small cell lu… 41.1 
 6 GSE19188 hsa00533 Glycosaminoglycan … hsa05223       Non-small cell lu…  3.88
 7 GSE19728 hsa04060 Cytokine-cytokine … hsa05214       Glioma             10.6 
 8 GSE20153 hsa04141 Protein processing… hsa05012       Parkinson disease   4.87
 9 GSE20291 hsa04978 Mineral absorption  hsa05012       Parkinson disease   8.24
10 GSE21354 hsa04060 Cytokine-cytokine … hsa05214       Glioma              6.01
# ℹ 14 more rows
…
global_evidence <- ser_res %>% 
  group_by(dataset) %>%
  summarise(
    log_bf_ser = matrixStats::logSumExp(lbf) - log(length(lbf)),
    cs = list(logisticsusie::compute_cs(alpha)),
    max_pip = max(alpha)
  ) %>%
  arrange(desc(log_bf_ser)) %>%
  rowwise() %>%
  mutate(cs_size = cs$size)

global_evidence

# A tibble: 24 × 5
# Rowwise: 
   dataset     log_bf_ser cs     max_pip cs_size
   <chr>            <dbl> <list>   <dbl>   <dbl>
 1 GSE8671          40.6  <cs>     1.00        1
 2 GSE781           36.4  <cs>     1.00        1
 3 GSE18842         35.3  <cs>     1.00        1
 4 GSE5281_HIP      26.4  <cs>     1.00        1
 5 GSE1297          20.3  <cs>     0.998       1
 6 GSE14762         18.2  <cs>     0.943       2
 7 GSE4107          15.5  <cs>     0.999       1
 8 GSE15471         11.3  <cs>     0.839       2
 9 GSE9348           9.16 <cs>     0.846       2
10 GSE3467           5.71 <cs>     0.977       1
# ℹ 14 more rows
…
